^\\NKM18427\PRV-MDV\VISUAL STUDIO 2010\PROJECTS\SHIFTREQUEST\SHIFTREQUEST\CONTROLS\USERCONTROLS\ASSIGNSHIFT.RESX
C:\PROGRAM FILES\MICROSOFT SDKS\WINDOWS\V7.0A\BIN\RESGEN.EXE.CONFIG
C:\WINDOWS\MICROSOFT.NET\FRAMEWORK\V2.0.50727\MSCORRC.DLL
^\\NKM18427\PRV-MDV\VISUAL STUDIO 2010\PROJECTS\SHIFTREQUEST\SHIFTREQUEST\CONTROLS\USERCONTROLS\EDITWORKDAYDEFINITIONS.RESX
^\\NKM18427\PRV-MDV\VISUAL STUDIO 2010\PROJECTS\SHIFTREQUEST\SHIFTREQUEST\CONTROLS\USERCONTROLS\MANAGESTANDARDSHIFTS.RESX
^\\NKM18427\PRV-MDV\VISUAL STUDIO 2010\PROJECTS\SHIFTREQUEST\SHIFTREQUEST\CONTROLS\USERCONTROLS\MODIFYTEAMSINCAMPAIGN.RESX
^\\NKM18427\PRV-MDV\VISUAL STUDIO 2010\PROJECTS\SHIFTREQUEST\SHIFTREQUEST\CONTROLS\USERCONTROLS\REVIEWSHIFTREQUESTS.RESX
^\\NKM18427\PRV-MDV\VISUAL STUDIO 2010\PROJECTS\SHIFTREQUEST\SHIFTREQUEST\CONTROLS\USERCONTROLS\SHIFTSELECTION.RESX
^\\NKM18427\PRV-MDV\VISUAL STUDIO 2010\PROJECTS\SHIFTREQUEST\SHIFTREQUEST\FORMS\EDITSHIFTREQUESTSFROM.RESX
^\\NKM18427\PRV-MDV\VISUAL STUDIO 2010\PROJECTS\SHIFTREQUEST\SHIFTREQUEST\FORMS\MANAGESHIFTREQUESTSFORM.RESX
^\\NKM18427\PRV-MDV\VISUAL STUDIO 2010\PROJECTS\SHIFTREQUEST\SHIFTREQUEST\FORMS\SELECTCAMPAIGNFORM.RESX
^\\NKM18427\PRV-MDV\VISUAL STUDIO 2010\PROJECTS\SHIFTREQUEST\SHIFTREQUEST\FORMS\SETTINGSFORM.RESX
^\\NKM18427\PRV-MDV\VISUAL STUDIO 2010\PROJECTS\SHIFTREQUEST\SHIFTREQUEST\FORMS\SUBMITSHIFTREQUESTFORM.RESX
^\\NKM18427\PRV-MDV\VISUAL STUDIO 2010\PROJECTS\SHIFTREQUEST\SHIFTREQUEST\MY PROJECT\RESOURCES.RESX
\\NKM18427\PRV-MDV\VISUAL STUDIO 2010\PROJECTS\SHIFTREQUEST\SHIFTREQUEST\RESOURCES\NKLOGO.ICO
\\NKM18427\PRV-MDV\VISUAL STUDIO 2010\PROJECTS\SHIFTREQUEST\SHIFTREQUEST\RESOURCES\ERROR.PNG
