^C:\USERS\MORTEN\DESKTOP\SHIFTREQUEST\SHIFTREQUEST\CONTROLS\USERCONTROLS\EDITWORKDAYDEFINITIONS.RESX|C:\USERS\MORTEN\DESKTOP\SHIFTREQUEST\SHIFTREQUEST\CONTROLS\USERCONTROLS\MANAGESTANDARDSHIFTS.RESX|C:\USERS\MORTEN\DESKTOP\SHIFTREQUEST\SHIFTREQUEST\FORMS\SETTINGS.RESX|C:\USERS\MORTEN\DESKTOP\SHIFTREQUEST\SHIFTREQUEST\FORMS\SUBMITSHIFTREQUESTS.RESX|C:\USERS\MORTEN\DESKTOP\SHIFTREQUEST\SHIFTREQUEST\MY PROJECT\RESOURCES.RESX
C:\USERS\MORTEN\DESKTOP\SHIFTREQUEST\SHIFTREQUEST\OBJ\X86\DEBUG\SHIFTREQUEST.EDITWORKDAYDEFINITIONS.RESOURCES
C:\USERS\MORTEN\DESKTOP\SHIFTREQUEST\SHIFTREQUEST\OBJ\X86\DEBUG\SHIFTREQUEST.MANAGESTANDARDSHIFTS.RESOURCES
C:\USERS\MORTEN\DESKTOP\SHIFTREQUEST\SHIFTREQUEST\OBJ\X86\DEBUG\SHIFTREQUEST.SETTINGS.RESOURCES
C:\USERS\MORTEN\DESKTOP\SHIFTREQUEST\SHIFTREQUEST\OBJ\X86\DEBUG\SHIFTREQUEST.SUBMITSHIFTREQUESTS.RESOURCES
C:\USERS\MORTEN\DESKTOP\SHIFTREQUEST\SHIFTREQUEST\OBJ\X86\DEBUG\SHIFTREQUEST.RESOURCES.RESOURCES
^\\NKM18427\PRV-MDV\VISUAL STUDIO 2010\PROJECTS\SHIFTREQUEST\SHIFTREQUEST\CONTROLS\USERCONTROLS\EDITWORKDAYDEFINITIONS.RESX|\\NKM18427\PRV-MDV\VISUAL STUDIO 2010\PROJECTS\SHIFTREQUEST\SHIFTREQUEST\CONTROLS\USERCONTROLS\MANAGESTANDARDSHIFTS.RESX|\\NKM18427\PRV-MDV\VISUAL STUDIO 2010\PROJECTS\SHIFTREQUEST\SHIFTREQUEST\FORMS\MANAGESHIFTREQUESTS.RESX|\\NKM18427\PRV-MDV\VISUAL STUDIO 2010\PROJECTS\SHIFTREQUEST\SHIFTREQUEST\FORMS\SETTINGS.RESX|\\NKM18427\PRV-MDV\VISUAL STUDIO 2010\PROJECTS\SHIFTREQUEST\SHIFTREQUEST\FORMS\SUBMITSHIFTREQUESTS.RESX|\\NKM18427\PRV-MDV\VISUAL STUDIO 2010\PROJECTS\SHIFTREQUEST\SHIFTREQUEST\MY PROJECT\RESOURCES.RESX
\\NKM18427\PRV-MDV\VISUAL STUDIO 2010\PROJECTS\SHIFTREQUEST\SHIFTREQUEST\OBJ\X86\DEBUG\SHIFTREQUEST.EDITWORKDAYDEFINITIONS.RESOURCES
\\NKM18427\PRV-MDV\VISUAL STUDIO 2010\PROJECTS\SHIFTREQUEST\SHIFTREQUEST\OBJ\X86\DEBUG\SHIFTREQUEST.MANAGESTANDARDSHIFTS.RESOURCES
\\NKM18427\PRV-MDV\VISUAL STUDIO 2010\PROJECTS\SHIFTREQUEST\SHIFTREQUEST\OBJ\X86\DEBUG\SHIFTREQUEST.MANAGESHIFTREQUESTS.RESOURCES
\\NKM18427\PRV-MDV\VISUAL STUDIO 2010\PROJECTS\SHIFTREQUEST\SHIFTREQUEST\OBJ\X86\DEBUG\SHIFTREQUEST.SETTINGS.RESOURCES
\\NKM18427\PRV-MDV\VISUAL STUDIO 2010\PROJECTS\SHIFTREQUEST\SHIFTREQUEST\OBJ\X86\DEBUG\SHIFTREQUEST.SUBMITSHIFTREQUESTS.RESOURCES
\\NKM18427\PRV-MDV\VISUAL STUDIO 2010\PROJECTS\SHIFTREQUEST\SHIFTREQUEST\OBJ\X86\DEBUG\SHIFTREQUEST.RESOURCES.RESOURCES
^\\NKM18427\PRV-MDV\VISUAL STUDIO 2010\PROJECTS\SHIFTREQUEST\SHIFTREQUEST\CONTROLS\USERCONTROLS\EDITWORKDAYDEFINITIONS.RESX|\\NKM18427\PRV-MDV\VISUAL STUDIO 2010\PROJECTS\SHIFTREQUEST\SHIFTREQUEST\CONTROLS\USERCONTROLS\MANAGESTANDARDSHIFTS.RESX|\\NKM18427\PRV-MDV\VISUAL STUDIO 2010\PROJECTS\SHIFTREQUEST\SHIFTREQUEST\FORMS\EDITSHIFTREQUESTS.RESX|\\NKM18427\PRV-MDV\VISUAL STUDIO 2010\PROJECTS\SHIFTREQUEST\SHIFTREQUEST\FORMS\MANAGESHIFTREQUESTS.RESX|\\NKM18427\PRV-MDV\VISUAL STUDIO 2010\PROJECTS\SHIFTREQUEST\SHIFTREQUEST\FORMS\SETTINGS.RESX|\\NKM18427\PRV-MDV\VISUAL STUDIO 2010\PROJECTS\SHIFTREQUEST\SHIFTREQUEST\FORMS\SUBMITSHIFTREQUESTS.RESX|\\NKM18427\PRV-MDV\VISUAL STUDIO 2010\PROJECTS\SHIFTREQUEST\SHIFTREQUEST\MY PROJECT\RESOURCES.RESX
\\NKM18427\PRV-MDV\VISUAL STUDIO 2010\PROJECTS\SHIFTREQUEST\SHIFTREQUEST\OBJ\X86\DEBUG\SHIFTREQUEST.EDITWORKDAYDEFINITIONS.RESOURCES
\\NKM18427\PRV-MDV\VISUAL STUDIO 2010\PROJECTS\SHIFTREQUEST\SHIFTREQUEST\OBJ\X86\DEBUG\SHIFTREQUEST.MANAGESTANDARDSHIFTS.RESOURCES
\\NKM18427\PRV-MDV\VISUAL STUDIO 2010\PROJECTS\SHIFTREQUEST\SHIFTREQUEST\OBJ\X86\DEBUG\SHIFTREQUEST.EDITSHIFTREQUESTS.RESOURCES
\\NKM18427\PRV-MDV\VISUAL STUDIO 2010\PROJECTS\SHIFTREQUEST\SHIFTREQUEST\OBJ\X86\DEBUG\SHIFTREQUEST.MANAGESHIFTREQUESTS.RESOURCES
\\NKM18427\PRV-MDV\VISUAL STUDIO 2010\PROJECTS\SHIFTREQUEST\SHIFTREQUEST\OBJ\X86\DEBUG\SHIFTREQUEST.SETTINGS.RESOURCES
\\NKM18427\PRV-MDV\VISUAL STUDIO 2010\PROJECTS\SHIFTREQUEST\SHIFTREQUEST\OBJ\X86\DEBUG\SHIFTREQUEST.SUBMITSHIFTREQUESTS.RESOURCES
\\NKM18427\PRV-MDV\VISUAL STUDIO 2010\PROJECTS\SHIFTREQUEST\SHIFTREQUEST\OBJ\X86\DEBUG\SHIFTREQUEST.RESOURCES.RESOURCES
^\\NKM18427\PRV-MDV\VISUAL STUDIO 2010\PROJECTS\SHIFTREQUEST\SHIFTREQUEST\CONTROLS\USERCONTROLS\EDITWORKDAYDEFINITIONS.RESX|\\NKM18427\PRV-MDV\VISUAL STUDIO 2010\PROJECTS\SHIFTREQUEST\SHIFTREQUEST\CONTROLS\USERCONTROLS\MANAGESTANDARDSHIFTS.RESX|\\NKM18427\PRV-MDV\VISUAL STUDIO 2010\PROJECTS\SHIFTREQUEST\SHIFTREQUEST\CONTROLS\USERCONTROLS\REVIEWSHIFTREQUESTS.RESX|\\NKM18427\PRV-MDV\VISUAL STUDIO 2010\PROJECTS\SHIFTREQUEST\SHIFTREQUEST\FORMS\EDITSHIFTREQUESTS.RESX|\\NKM18427\PRV-MDV\VISUAL STUDIO 2010\PROJECTS\SHIFTREQUEST\SHIFTREQUEST\FORMS\MANAGESHIFTREQUESTS.RESX|\\NKM18427\PRV-MDV\VISUAL STUDIO 2010\PROJECTS\SHIFTREQUEST\SHIFTREQUEST\FORMS\SETTINGS.RESX|\\NKM18427\PRV-MDV\VISUAL STUDIO 2010\PROJECTS\SHIFTREQUEST\SHIFTREQUEST\FORMS\SUBMITSHIFTREQUESTS.RESX|\\NKM18427\PRV-MDV\VISUAL STUDIO 2010\PROJECTS\SHIFTREQUEST\SHIFTREQUEST\MY PROJECT\RESOURCES.RESX
\\NKM18427\PRV-MDV\VISUAL STUDIO 2010\PROJECTS\SHIFTREQUEST\SHIFTREQUEST\OBJ\X86\DEBUG\SHIFTREQUEST.EDITWORKDAYDEFINITIONS.RESOURCES
\\NKM18427\PRV-MDV\VISUAL STUDIO 2010\PROJECTS\SHIFTREQUEST\SHIFTREQUEST\OBJ\X86\DEBUG\SHIFTREQUEST.MANAGESTANDARDSHIFTS.RESOURCES
\\NKM18427\PRV-MDV\VISUAL STUDIO 2010\PROJECTS\SHIFTREQUEST\SHIFTREQUEST\OBJ\X86\DEBUG\SHIFTREQUEST.REVIEWSHIFTREQUESTS.RESOURCES
\\NKM18427\PRV-MDV\VISUAL STUDIO 2010\PROJECTS\SHIFTREQUEST\SHIFTREQUEST\OBJ\X86\DEBUG\SHIFTREQUEST.EDITSHIFTREQUESTS.RESOURCES
\\NKM18427\PRV-MDV\VISUAL STUDIO 2010\PROJECTS\SHIFTREQUEST\SHIFTREQUEST\OBJ\X86\DEBUG\SHIFTREQUEST.MANAGESHIFTREQUESTS.RESOURCES
\\NKM18427\PRV-MDV\VISUAL STUDIO 2010\PROJECTS\SHIFTREQUEST\SHIFTREQUEST\OBJ\X86\DEBUG\SHIFTREQUEST.SETTINGS.RESOURCES
\\NKM18427\PRV-MDV\VISUAL STUDIO 2010\PROJECTS\SHIFTREQUEST\SHIFTREQUEST\OBJ\X86\DEBUG\SHIFTREQUEST.SUBMITSHIFTREQUESTS.RESOURCES
\\NKM18427\PRV-MDV\VISUAL STUDIO 2010\PROJECTS\SHIFTREQUEST\SHIFTREQUEST\OBJ\X86\DEBUG\SHIFTREQUEST.RESOURCES.RESOURCES
^\\NKM18427\PRV-MDV\VISUAL STUDIO 2010\PROJECTS\SHIFTREQUEST\SHIFTREQUEST\CONTROLS\USERCONTROLS\EDITWORKDAYDEFINITIONS.RESX|\\NKM18427\PRV-MDV\VISUAL STUDIO 2010\PROJECTS\SHIFTREQUEST\SHIFTREQUEST\CONTROLS\USERCONTROLS\MANAGESTANDARDSHIFTS.RESX|\\NKM18427\PRV-MDV\VISUAL STUDIO 2010\PROJECTS\SHIFTREQUEST\SHIFTREQUEST\CONTROLS\USERCONTROLS\REVIEWSHIFTREQUESTS.RESX|\\NKM18427\PRV-MDV\VISUAL STUDIO 2010\PROJECTS\SHIFTREQUEST\SHIFTREQUEST\FORMS\EDITSHIFTREQUESTS.RESX|\\NKM18427\PRV-MDV\VISUAL STUDIO 2010\PROJECTS\SHIFTREQUEST\SHIFTREQUEST\FORMS\FORM1.RESX|\\NKM18427\PRV-MDV\VISUAL STUDIO 2010\PROJECTS\SHIFTREQUEST\SHIFTREQUEST\FORMS\MANAGESHIFTREQUESTS.RESX|\\NKM18427\PRV-MDV\VISUAL STUDIO 2010\PROJECTS\SHIFTREQUEST\SHIFTREQUEST\FORMS\SETTINGS.RESX|\\NKM18427\PRV-MDV\VISUAL STUDIO 2010\PROJECTS\SHIFTREQUEST\SHIFTREQUEST\FORMS\SUBMITSHIFTREQUESTS.RESX|\\NKM18427\PRV-MDV\VISUAL STUDIO 2010\PROJECTS\SHIFTREQUEST\SHIFTREQUEST\MY PROJECT\RESOURCES.RESX
\\NKM18427\PRV-MDV\VISUAL STUDIO 2010\PROJECTS\SHIFTREQUEST\SHIFTREQUEST\OBJ\X86\DEBUG\SHIFTREQUEST.REVIEWSHIFTREQUESTS.RESOURCES
^\\NKM18427\PRV-MDV\VISUAL STUDIO 2010\PROJECTS\SHIFTREQUEST\SHIFTREQUEST\CONTROLS\USERCONTROLS\EDITWORKDAYDEFINITIONS.RESX|\\NKM18427\PRV-MDV\VISUAL STUDIO 2010\PROJECTS\SHIFTREQUEST\SHIFTREQUEST\CONTROLS\USERCONTROLS\MANAGESTANDARDSHIFTS.RESX|\\NKM18427\PRV-MDV\VISUAL STUDIO 2010\PROJECTS\SHIFTREQUEST\SHIFTREQUEST\CONTROLS\USERCONTROLS\REVIEWSHIFTREQUESTS.RESX|\\NKM18427\PRV-MDV\VISUAL STUDIO 2010\PROJECTS\SHIFTREQUEST\SHIFTREQUEST\CONTROLS\USERCONTROLS\SHIFTREQUESTSOVERVIEW.RESX|\\NKM18427\PRV-MDV\VISUAL STUDIO 2010\PROJECTS\SHIFTREQUEST\SHIFTREQUEST\FORMS\EDITSHIFTREQUESTSFORM.RESX|\\NKM18427\PRV-MDV\VISUAL STUDIO 2010\PROJECTS\SHIFTREQUEST\SHIFTREQUEST\FORMS\FORM1.RESX|\\NKM18427\PRV-MDV\VISUAL STUDIO 2010\PROJECTS\SHIFTREQUEST\SHIFTREQUEST\FORMS\MANAGESHIFTREQUESTSFORM.RESX|\\NKM18427\PRV-MDV\VISUAL STUDIO 2010\PROJECTS\SHIFTREQUEST\SHIFTREQUEST\FORMS\SETTINGSFORM.RESX|\\NKM18427\PRV-MDV\VISUAL STUDIO 2010\PROJECTS\SHIFTREQUEST\SHIFTREQUEST\FORMS\SUBMITSHIFTREQUESTSFORM.RESX|\\NKM18427\PRV-MDV\VISUAL STUDIO 2010\PROJECTS\SHIFTREQUEST\SHIFTREQUEST\MY PROJECT\RESOURCES.RESX
\\NKM18427\PRV-MDV\VISUAL STUDIO 2010\PROJECTS\SHIFTREQUEST\SHIFTREQUEST\OBJ\X86\DEBUG\SHIFTREQUEST.EDITWORKDAYDEFINITIONS.RESOURCES
\\NKM18427\PRV-MDV\VISUAL STUDIO 2010\PROJECTS\SHIFTREQUEST\SHIFTREQUEST\OBJ\X86\DEBUG\SHIFTREQUEST.MANAGESTANDARDSHIFTS.RESOURCES
\\NKM18427\PRV-MDV\VISUAL STUDIO 2010\PROJECTS\SHIFTREQUEST\SHIFTREQUEST\OBJ\X86\DEBUG\SHIFTREQUEST.REVIEWSHIFTREQUESTS.RESOURCES
\\NKM18427\PRV-MDV\VISUAL STUDIO 2010\PROJECTS\SHIFTREQUEST\SHIFTREQUEST\OBJ\X86\DEBUG\SHIFTREQUEST.SHIFTREQUESTSOVERVIEW.RESOURCES
\\NKM18427\PRV-MDV\VISUAL STUDIO 2010\PROJECTS\SHIFTREQUEST\SHIFTREQUEST\OBJ\X86\DEBUG\SHIFTREQUEST.EDITSHIFTREQUESTSFORM.RESOURCES
\\NKM18427\PRV-MDV\VISUAL STUDIO 2010\PROJECTS\SHIFTREQUEST\SHIFTREQUEST\OBJ\X86\DEBUG\SHIFTREQUEST.FORM1.RESOURCES
\\NKM18427\PRV-MDV\VISUAL STUDIO 2010\PROJECTS\SHIFTREQUEST\SHIFTREQUEST\OBJ\X86\DEBUG\SHIFTREQUEST.MANAGESHIFTREQUESTSFORM.RESOURCES
\\NKM18427\PRV-MDV\VISUAL STUDIO 2010\PROJECTS\SHIFTREQUEST\SHIFTREQUEST\OBJ\X86\DEBUG\SHIFTREQUEST.SETTINGSFORM.RESOURCES
\\NKM18427\PRV-MDV\VISUAL STUDIO 2010\PROJECTS\SHIFTREQUEST\SHIFTREQUEST\OBJ\X86\DEBUG\SHIFTREQUEST.SUBMITSHIFTREQUESTSFORM.RESOURCES
\\NKM18427\PRV-MDV\VISUAL STUDIO 2010\PROJECTS\SHIFTREQUEST\SHIFTREQUEST\OBJ\X86\DEBUG\SHIFTREQUEST.RESOURCES.RESOURCES
^\\NKM18427\PRV-MDV\VISUAL STUDIO 2010\PROJECTS\SHIFTREQUEST\SHIFTREQUEST\CONTROLS\USERCONTROLS\EDITWORKDAYDEFINITIONS.RESX|\\NKM18427\PRV-MDV\VISUAL STUDIO 2010\PROJECTS\SHIFTREQUEST\SHIFTREQUEST\CONTROLS\USERCONTROLS\MANAGESTANDARDSHIFTS.RESX|\\NKM18427\PRV-MDV\VISUAL STUDIO 2010\PROJECTS\SHIFTREQUEST\SHIFTREQUEST\CONTROLS\USERCONTROLS\REVIEWSHIFTREQUESTS.RESX|\\NKM18427\PRV-MDV\VISUAL STUDIO 2010\PROJECTS\SHIFTREQUEST\SHIFTREQUEST\FORMS\EDITSHIFTREQUESTSFORM.RESX|\\NKM18427\PRV-MDV\VISUAL STUDIO 2010\PROJECTS\SHIFTREQUEST\SHIFTREQUEST\FORMS\FORM1.RESX|\\NKM18427\PRV-MDV\VISUAL STUDIO 2010\PROJECTS\SHIFTREQUEST\SHIFTREQUEST\FORMS\MANAGESHIFTREQUESTSFORM.RESX|\\NKM18427\PRV-MDV\VISUAL STUDIO 2010\PROJECTS\SHIFTREQUEST\SHIFTREQUEST\FORMS\SETTINGSFORM.RESX|\\NKM18427\PRV-MDV\VISUAL STUDIO 2010\PROJECTS\SHIFTREQUEST\SHIFTREQUEST\FORMS\SUBMITSHIFTREQUESTSFORM.RESX|\\NKM18427\PRV-MDV\VISUAL STUDIO 2010\PROJECTS\SHIFTREQUEST\SHIFTREQUEST\MY PROJECT\RESOURCES.RESX
\\NKM18427\PRV-MDV\VISUAL STUDIO 2010\PROJECTS\SHIFTREQUEST\SHIFTREQUEST\OBJ\X86\DEBUG\SHIFTREQUEST.EDITWORKDAYDEFINITIONS.RESOURCES
\\NKM18427\PRV-MDV\VISUAL STUDIO 2010\PROJECTS\SHIFTREQUEST\SHIFTREQUEST\OBJ\X86\DEBUG\SHIFTREQUEST.MANAGESTANDARDSHIFTS.RESOURCES
\\NKM18427\PRV-MDV\VISUAL STUDIO 2010\PROJECTS\SHIFTREQUEST\SHIFTREQUEST\OBJ\X86\DEBUG\SHIFTREQUEST.REVIEWSHIFTREQUESTS.RESOURCES
\\NKM18427\PRV-MDV\VISUAL STUDIO 2010\PROJECTS\SHIFTREQUEST\SHIFTREQUEST\OBJ\X86\DEBUG\SHIFTREQUEST.EDITSHIFTREQUESTSFORM.RESOURCES
\\NKM18427\PRV-MDV\VISUAL STUDIO 2010\PROJECTS\SHIFTREQUEST\SHIFTREQUEST\OBJ\X86\DEBUG\SHIFTREQUEST.FORM1.RESOURCES
\\NKM18427\PRV-MDV\VISUAL STUDIO 2010\PROJECTS\SHIFTREQUEST\SHIFTREQUEST\OBJ\X86\DEBUG\SHIFTREQUEST.MANAGESHIFTREQUESTSFORM.RESOURCES
\\NKM18427\PRV-MDV\VISUAL STUDIO 2010\PROJECTS\SHIFTREQUEST\SHIFTREQUEST\OBJ\X86\DEBUG\SHIFTREQUEST.SETTINGSFORM.RESOURCES
\\NKM18427\PRV-MDV\VISUAL STUDIO 2010\PROJECTS\SHIFTREQUEST\SHIFTREQUEST\OBJ\X86\DEBUG\SHIFTREQUEST.SUBMITSHIFTREQUESTSFORM.RESOURCES
\\NKM18427\PRV-MDV\VISUAL STUDIO 2010\PROJECTS\SHIFTREQUEST\SHIFTREQUEST\OBJ\X86\DEBUG\SHIFTREQUEST.RESOURCES.RESOURCES
^\\NKM18427\PRV-MDV\VISUAL STUDIO 2010\PROJECTS\SHIFTREQUEST\SHIFTREQUEST\CONTROLS\USERCONTROLS\EDITWORKDAYDEFINITIONS.RESX|\\NKM18427\PRV-MDV\VISUAL STUDIO 2010\PROJECTS\SHIFTREQUEST\SHIFTREQUEST\CONTROLS\USERCONTROLS\MANAGESTANDARDSHIFTS.RESX|\\NKM18427\PRV-MDV\VISUAL STUDIO 2010\PROJECTS\SHIFTREQUEST\SHIFTREQUEST\CONTROLS\USERCONTROLS\REVIEWSHIFTREQUESTS.RESX|\\NKM18427\PRV-MDV\VISUAL STUDIO 2010\PROJECTS\SHIFTREQUEST\SHIFTREQUEST\FORMS\EDITSHIFTREQUESTSFORM.RESX|\\NKM18427\PRV-MDV\VISUAL STUDIO 2010\PROJECTS\SHIFTREQUEST\SHIFTREQUEST\FORMS\MANAGESHIFTREQUESTSFORM.RESX|\\NKM18427\PRV-MDV\VISUAL STUDIO 2010\PROJECTS\SHIFTREQUEST\SHIFTREQUEST\FORMS\SETTINGSFORM.RESX|\\NKM18427\PRV-MDV\VISUAL STUDIO 2010\PROJECTS\SHIFTREQUEST\SHIFTREQUEST\FORMS\SUBMITSHIFTREQUESTSFORM.RESX|\\NKM18427\PRV-MDV\VISUAL STUDIO 2010\PROJECTS\SHIFTREQUEST\SHIFTREQUEST\MY PROJECT\RESOURCES.RESX
\\NKM18427\PRV-MDV\VISUAL STUDIO 2010\PROJECTS\SHIFTREQUEST\SHIFTREQUEST\OBJ\X86\DEBUG\SHIFTREQUEST.REVIEWSHIFTREQUESTS.RESOURCES
\\NKM18427\PRV-MDV\VISUAL STUDIO 2010\PROJECTS\SHIFTREQUEST\SHIFTREQUEST\OBJ\X86\DEBUG\SHIFTREQUEST.EDITSHIFTREQUESTSFORM.RESOURCES
\\NKM18427\PRV-MDV\VISUAL STUDIO 2010\PROJECTS\SHIFTREQUEST\SHIFTREQUEST\OBJ\X86\DEBUG\SHIFTREQUEST.MANAGESHIFTREQUESTSFORM.RESOURCES
\\NKM18427\PRV-MDV\VISUAL STUDIO 2010\PROJECTS\SHIFTREQUEST\SHIFTREQUEST\OBJ\X86\DEBUG\SHIFTREQUEST.SETTINGSFORM.RESOURCES
\\NKM18427\PRV-MDV\VISUAL STUDIO 2010\PROJECTS\SHIFTREQUEST\SHIFTREQUEST\OBJ\X86\DEBUG\SHIFTREQUEST.SUBMITSHIFTREQUESTSFORM.RESOURCES
\\NKM18427\PRV-MDV\VISUAL STUDIO 2010\PROJECTS\SHIFTREQUEST\SHIFTREQUEST\OBJ\X86\DEBUG\SHIFTREQUEST.RESOURCES.RESOURCES
\\NKM18427\PRV-MDV\VISUAL STUDIO 2010\PROJECTS\SHIFTREQUEST\SHIFTREQUEST\OBJ\X86\DEBUG\SHIFTREQUEST.EDITWORKDAYDEFINITIONS.RESOURCES
\\NKM18427\PRV-MDV\VISUAL STUDIO 2010\PROJECTS\SHIFTREQUEST\SHIFTREQUEST\OBJ\X86\DEBUG\SHIFTREQUEST.MANAGESTANDARDSHIFTS.RESOURCES
^\\NKM18427\PRV-MDV\VISUAL STUDIO 2010\PROJECTS\SHIFTREQUEST\SHIFTREQUEST\CONTROLS\USERCONTROLS\EDITWORKDAYDEFINITIONS.RESX|\\NKM18427\PRV-MDV\VISUAL STUDIO 2010\PROJECTS\SHIFTREQUEST\SHIFTREQUEST\CONTROLS\USERCONTROLS\MANAGESTANDARDSHIFTS.RESX|\\NKM18427\PRV-MDV\VISUAL STUDIO 2010\PROJECTS\SHIFTREQUEST\SHIFTREQUEST\CONTROLS\USERCONTROLS\REVIEWSHIFTREQUESTS.RESX|\\NKM18427\PRV-MDV\VISUAL STUDIO 2010\PROJECTS\SHIFTREQUEST\SHIFTREQUEST\FORMS\EDITSHIFTREQUESTSFORM.RESX|\\NKM18427\PRV-MDV\VISUAL STUDIO 2010\PROJECTS\SHIFTREQUEST\SHIFTREQUEST\FORMS\FORM1.RESX|\\NKM18427\PRV-MDV\VISUAL STUDIO 2010\PROJECTS\SHIFTREQUEST\SHIFTREQUEST\FORMS\MANAGESHIFTREQUESTSFORM.RESX|\\NKM18427\PRV-MDV\VISUAL STUDIO 2010\PROJECTS\SHIFTREQUEST\SHIFTREQUEST\FORMS\SELECTCAMPAIGNFORM.RESX|\\NKM18427\PRV-MDV\VISUAL STUDIO 2010\PROJECTS\SHIFTREQUEST\SHIFTREQUEST\FORMS\SETTINGSFORM.RESX|\\NKM18427\PRV-MDV\VISUAL STUDIO 2010\PROJECTS\SHIFTREQUEST\SHIFTREQUEST\FORMS\SUBMITSHIFTREQUESTSFORM.RESX|\\NKM18427\PRV-MDV\VISUAL STUDIO 2010\PROJECTS\SHIFTREQUEST\SHIFTREQUEST\MY PROJECT\RESOURCES.RESX
\\NKM18427\PRV-MDV\VISUAL STUDIO 2010\PROJECTS\SHIFTREQUEST\SHIFTREQUEST\OBJ\X86\DEBUG\SHIFTREQUEST.REVIEWSHIFTREQUESTS.RESOURCES
\\NKM18427\PRV-MDV\VISUAL STUDIO 2010\PROJECTS\SHIFTREQUEST\SHIFTREQUEST\OBJ\X86\DEBUG\SHIFTREQUEST.EDITSHIFTREQUESTSFORM.RESOURCES
\\NKM18427\PRV-MDV\VISUAL STUDIO 2010\PROJECTS\SHIFTREQUEST\SHIFTREQUEST\OBJ\X86\DEBUG\SHIFTREQUEST.FORM1.RESOURCES
\\NKM18427\PRV-MDV\VISUAL STUDIO 2010\PROJECTS\SHIFTREQUEST\SHIFTREQUEST\OBJ\X86\DEBUG\SHIFTREQUEST.MANAGESHIFTREQUESTSFORM.RESOURCES
\\NKM18427\PRV-MDV\VISUAL STUDIO 2010\PROJECTS\SHIFTREQUEST\SHIFTREQUEST\OBJ\X86\DEBUG\SHIFTREQUEST.SELECTCAMPAIGNFORM.RESOURCES
\\NKM18427\PRV-MDV\VISUAL STUDIO 2010\PROJECTS\SHIFTREQUEST\SHIFTREQUEST\OBJ\X86\DEBUG\SHIFTREQUEST.SETTINGSFORM.RESOURCES
\\NKM18427\PRV-MDV\VISUAL STUDIO 2010\PROJECTS\SHIFTREQUEST\SHIFTREQUEST\OBJ\X86\DEBUG\SHIFTREQUEST.SUBMITSHIFTREQUESTSFORM.RESOURCES
\\NKM18427\PRV-MDV\VISUAL STUDIO 2010\PROJECTS\SHIFTREQUEST\SHIFTREQUEST\OBJ\X86\DEBUG\SHIFTREQUEST.RESOURCES.RESOURCES
\\NKM18427\PRV-MDV\VISUAL STUDIO 2010\PROJECTS\SHIFTREQUEST\SHIFTREQUEST\OBJ\X86\DEBUG\SHIFTREQUEST.MANAGESTANDARDSHIFTS.RESOURCES
\\NKM18427\PRV-MDV\VISUAL STUDIO 2010\PROJECTS\SHIFTREQUEST\SHIFTREQUEST\OBJ\X86\DEBUG\SHIFTREQUEST.EDITWORKDAYDEFINITIONS.RESOURCES
^\\NKM18427\PRV-MDV\VISUAL STUDIO 2010\PROJECTS\SHIFTREQUEST\SHIFTREQUEST\CONTROLS\USERCONTROLS\EDITWORKDAYDEFINITIONS.RESX|\\NKM18427\PRV-MDV\VISUAL STUDIO 2010\PROJECTS\SHIFTREQUEST\SHIFTREQUEST\CONTROLS\USERCONTROLS\MANAGESTANDARDSHIFTS.RESX|\\NKM18427\PRV-MDV\VISUAL STUDIO 2010\PROJECTS\SHIFTREQUEST\SHIFTREQUEST\CONTROLS\USERCONTROLS\REVIEWSHIFTREQUESTS.RESX|\\NKM18427\PRV-MDV\VISUAL STUDIO 2010\PROJECTS\SHIFTREQUEST\SHIFTREQUEST\FORMS\EDITSHIFTREQUESTSFORM.RESX|\\NKM18427\PRV-MDV\VISUAL STUDIO 2010\PROJECTS\SHIFTREQUEST\SHIFTREQUEST\FORMS\MANAGESHIFTREQUESTSFORM.RESX|\\NKM18427\PRV-MDV\VISUAL STUDIO 2010\PROJECTS\SHIFTREQUEST\SHIFTREQUEST\FORMS\SELECTCAMPAIGNFORM.RESX|\\NKM18427\PRV-MDV\VISUAL STUDIO 2010\PROJECTS\SHIFTREQUEST\SHIFTREQUEST\FORMS\SETTINGSFORM.RESX|\\NKM18427\PRV-MDV\VISUAL STUDIO 2010\PROJECTS\SHIFTREQUEST\SHIFTREQUEST\FORMS\SUBMITSHIFTREQUESTSFORM.RESX|\\NKM18427\PRV-MDV\VISUAL STUDIO 2010\PROJECTS\SHIFTREQUEST\SHIFTREQUEST\MY PROJECT\RESOURCES.RESX
\\NKM18427\PRV-MDV\VISUAL STUDIO 2010\PROJECTS\SHIFTREQUEST\SHIFTREQUEST\OBJ\X86\DEBUG\SHIFTREQUEST.EDITWORKDAYDEFINITIONS.RESOURCES
\\NKM18427\PRV-MDV\VISUAL STUDIO 2010\PROJECTS\SHIFTREQUEST\SHIFTREQUEST\OBJ\X86\DEBUG\SHIFTREQUEST.MANAGESTANDARDSHIFTS.RESOURCES
\\NKM18427\PRV-MDV\VISUAL STUDIO 2010\PROJECTS\SHIFTREQUEST\SHIFTREQUEST\OBJ\X86\DEBUG\SHIFTREQUEST.REVIEWSHIFTREQUESTS.RESOURCES
\\NKM18427\PRV-MDV\VISUAL STUDIO 2010\PROJECTS\SHIFTREQUEST\SHIFTREQUEST\OBJ\X86\DEBUG\SHIFTREQUEST.EDITSHIFTREQUESTSFORM.RESOURCES
\\NKM18427\PRV-MDV\VISUAL STUDIO 2010\PROJECTS\SHIFTREQUEST\SHIFTREQUEST\OBJ\X86\DEBUG\SHIFTREQUEST.MANAGESHIFTREQUESTSFORM.RESOURCES
\\NKM18427\PRV-MDV\VISUAL STUDIO 2010\PROJECTS\SHIFTREQUEST\SHIFTREQUEST\OBJ\X86\DEBUG\SHIFTREQUEST.SELECTCAMPAIGNFORM.RESOURCES
\\NKM18427\PRV-MDV\VISUAL STUDIO 2010\PROJECTS\SHIFTREQUEST\SHIFTREQUEST\OBJ\X86\DEBUG\SHIFTREQUEST.SETTINGSFORM.RESOURCES
\\NKM18427\PRV-MDV\VISUAL STUDIO 2010\PROJECTS\SHIFTREQUEST\SHIFTREQUEST\OBJ\X86\DEBUG\SHIFTREQUEST.SUBMITSHIFTREQUESTSFORM.RESOURCES
\\NKM18427\PRV-MDV\VISUAL STUDIO 2010\PROJECTS\SHIFTREQUEST\SHIFTREQUEST\OBJ\X86\DEBUG\SHIFTREQUEST.RESOURCES.RESOURCES
^\\NKM18427\PRV-MDV\VISUAL STUDIO 2010\PROJECTS\SHIFTREQUEST\SHIFTREQUEST\CONTROLS\USERCONTROLS\ASSIGNSHIFT.RESX|\\NKM18427\PRV-MDV\VISUAL STUDIO 2010\PROJECTS\SHIFTREQUEST\SHIFTREQUEST\CONTROLS\USERCONTROLS\EDITWORKDAYDEFINITIONS.RESX|\\NKM18427\PRV-MDV\VISUAL STUDIO 2010\PROJECTS\SHIFTREQUEST\SHIFTREQUEST\CONTROLS\USERCONTROLS\MANAGESTANDARDSHIFTS.RESX|\\NKM18427\PRV-MDV\VISUAL STUDIO 2010\PROJECTS\SHIFTREQUEST\SHIFTREQUEST\CONTROLS\USERCONTROLS\REVIEWSHIFTREQUESTS.RESX|\\NKM18427\PRV-MDV\VISUAL STUDIO 2010\PROJECTS\SHIFTREQUEST\SHIFTREQUEST\FORMS\EDITSHIFTREQUESTSFORM.RESX|\\NKM18427\PRV-MDV\VISUAL STUDIO 2010\PROJECTS\SHIFTREQUEST\SHIFTREQUEST\FORMS\MANAGESHIFTREQUESTSFORM.RESX|\\NKM18427\PRV-MDV\VISUAL STUDIO 2010\PROJECTS\SHIFTREQUEST\SHIFTREQUEST\FORMS\SELECTCAMPAIGNFORM.RESX|\\NKM18427\PRV-MDV\VISUAL STUDIO 2010\PROJECTS\SHIFTREQUEST\SHIFTREQUEST\FORMS\SETTINGSFORM.RESX|\\NKM18427\PRV-MDV\VISUAL STUDIO 2010\PROJECTS\SHIFTREQUEST\SHIFTREQUEST\FORMS\SUBMITSHIFTREQUESTSFORM.RESX|\\NKM18427\PRV-MDV\VISUAL STUDIO 2010\PROJECTS\SHIFTREQUEST\SHIFTREQUEST\MY PROJECT\RESOURCES.RESX
\\NKM18427\PRV-MDV\VISUAL STUDIO 2010\PROJECTS\SHIFTREQUEST\SHIFTREQUEST\OBJ\X86\DEBUG\SHIFTREQUEST.ASSIGNSHIFT.RESOURCES
\\NKM18427\PRV-MDV\VISUAL STUDIO 2010\PROJECTS\SHIFTREQUEST\SHIFTREQUEST\OBJ\X86\DEBUG\SHIFTREQUEST.MANAGESHIFTREQUESTSFORM.RESOURCES
\\NKM18427\PRV-MDV\VISUAL STUDIO 2010\PROJECTS\SHIFTREQUEST\SHIFTREQUEST\OBJ\X86\DEBUG\SHIFTREQUEST.SETTINGSFORM.RESOURCES
\\NKM18427\PRV-MDV\VISUAL STUDIO 2010\PROJECTS\SHIFTREQUEST\SHIFTREQUEST\OBJ\X86\DEBUG\SHIFTREQUEST.SUBMITSHIFTREQUESTSFORM.RESOURCES
\\NKM18427\PRV-MDV\VISUAL STUDIO 2010\PROJECTS\SHIFTREQUEST\SHIFTREQUEST\OBJ\X86\DEBUG\SHIFTREQUEST.RESOURCES.RESOURCES
\\NKM18427\PRV-MDV\VISUAL STUDIO 2010\PROJECTS\SHIFTREQUEST\SHIFTREQUEST\OBJ\X86\DEBUG\SHIFTREQUEST.EDITWORKDAYDEFINITIONS.RESOURCES
\\NKM18427\PRV-MDV\VISUAL STUDIO 2010\PROJECTS\SHIFTREQUEST\SHIFTREQUEST\OBJ\X86\DEBUG\SHIFTREQUEST.MANAGESTANDARDSHIFTS.RESOURCES
\\NKM18427\PRV-MDV\VISUAL STUDIO 2010\PROJECTS\SHIFTREQUEST\SHIFTREQUEST\OBJ\X86\DEBUG\SHIFTREQUEST.REVIEWSHIFTREQUESTS.RESOURCES
\\NKM18427\PRV-MDV\VISUAL STUDIO 2010\PROJECTS\SHIFTREQUEST\SHIFTREQUEST\OBJ\X86\DEBUG\SHIFTREQUEST.EDITSHIFTREQUESTSFORM.RESOURCES
\\NKM18427\PRV-MDV\VISUAL STUDIO 2010\PROJECTS\SHIFTREQUEST\SHIFTREQUEST\OBJ\X86\DEBUG\SHIFTREQUEST.SELECTCAMPAIGNFORM.RESOURCES
^\\NKM18427\PRV-MDV\VISUAL STUDIO 2010\PROJECTS\SHIFTREQUEST\SHIFTREQUEST\CONTROLS\USERCONTROLS\ASSIGNSHIFT.RESX|\\NKM18427\PRV-MDV\VISUAL STUDIO 2010\PROJECTS\SHIFTREQUEST\SHIFTREQUEST\CONTROLS\USERCONTROLS\EDITWORKDAYDEFINITIONS.RESX|\\NKM18427\PRV-MDV\VISUAL STUDIO 2010\PROJECTS\SHIFTREQUEST\SHIFTREQUEST\CONTROLS\USERCONTROLS\MANAGESTANDARDSHIFTS.RESX|\\NKM18427\PRV-MDV\VISUAL STUDIO 2010\PROJECTS\SHIFTREQUEST\SHIFTREQUEST\CONTROLS\USERCONTROLS\REVIEWSHIFTREQUESTS.RESX|\\NKM18427\PRV-MDV\VISUAL STUDIO 2010\PROJECTS\SHIFTREQUEST\SHIFTREQUEST\CONTROLS\USERCONTROLS\SHIFTSELECTION.RESX|\\NKM18427\PRV-MDV\VISUAL STUDIO 2010\PROJECTS\SHIFTREQUEST\SHIFTREQUEST\CONTROLS\USERCONTROLS\SHIFTSELECTIONTEMP.RESX|\\NKM18427\PRV-MDV\VISUAL STUDIO 2010\PROJECTS\SHIFTREQUEST\SHIFTREQUEST\FORMS\EDITSHIFTREQUESTSFORM.RESX|\\NKM18427\PRV-MDV\VISUAL STUDIO 2010\PROJECTS\SHIFTREQUEST\SHIFTREQUEST\FORMS\MANAGESHIFTREQUESTSFORM.RESX|\\NKM18427\PRV-MDV\VISUAL STUDIO 2010\PROJECTS\SHIFTREQUEST\SHIFTREQUEST\FORMS\SELECTCAMPAIGNFORM.RESX|\\NKM18427\PRV-MDV\VISUAL STUDIO 2010\PROJECTS\SHIFTREQUEST\SHIFTREQUEST\FORMS\SETTINGSFORM.RESX|\\NKM18427\PRV-MDV\VISUAL STUDIO 2010\PROJECTS\SHIFTREQUEST\SHIFTREQUEST\FORMS\SUBMITSHIFTREQUESTSFORM.RESX|\\NKM18427\PRV-MDV\VISUAL STUDIO 2010\PROJECTS\SHIFTREQUEST\SHIFTREQUEST\FORMS\TEST.RESX|\\NKM18427\PRV-MDV\VISUAL STUDIO 2010\PROJECTS\SHIFTREQUEST\SHIFTREQUEST\MY PROJECT\RESOURCES.RESX
^\\NKM18427\PRV-MDV\VISUAL STUDIO 2010\PROJECTS\SHIFTREQUEST\SHIFTREQUEST\CONTROLS\USERCONTROLS\ASSIGNSHIFT.RESX|\\NKM18427\PRV-MDV\VISUAL STUDIO 2010\PROJECTS\SHIFTREQUEST\SHIFTREQUEST\CONTROLS\USERCONTROLS\EDITWORKDAYDEFINITIONS.RESX|\\NKM18427\PRV-MDV\VISUAL STUDIO 2010\PROJECTS\SHIFTREQUEST\SHIFTREQUEST\CONTROLS\USERCONTROLS\MANAGESTANDARDSHIFTS.RESX|\\NKM18427\PRV-MDV\VISUAL STUDIO 2010\PROJECTS\SHIFTREQUEST\SHIFTREQUEST\CONTROLS\USERCONTROLS\REVIEWSHIFTREQUESTS.RESX|\\NKM18427\PRV-MDV\VISUAL STUDIO 2010\PROJECTS\SHIFTREQUEST\SHIFTREQUEST\CONTROLS\USERCONTROLS\SHIFTSELECTION.RESX|\\NKM18427\PRV-MDV\VISUAL STUDIO 2010\PROJECTS\SHIFTREQUEST\SHIFTREQUEST\FORMS\EDITSHIFTREQUESTSFORM.RESX|\\NKM18427\PRV-MDV\VISUAL STUDIO 2010\PROJECTS\SHIFTREQUEST\SHIFTREQUEST\FORMS\MANAGESHIFTREQUESTSFORM.RESX|\\NKM18427\PRV-MDV\VISUAL STUDIO 2010\PROJECTS\SHIFTREQUEST\SHIFTREQUEST\FORMS\SELECTCAMPAIGNFORM.RESX|\\NKM18427\PRV-MDV\VISUAL STUDIO 2010\PROJECTS\SHIFTREQUEST\SHIFTREQUEST\FORMS\SETTINGSFORM.RESX|\\NKM18427\PRV-MDV\VISUAL STUDIO 2010\PROJECTS\SHIFTREQUEST\SHIFTREQUEST\FORMS\SUBMITSHIFTREQUESTSFORM.RESX|\\NKM18427\PRV-MDV\VISUAL STUDIO 2010\PROJECTS\SHIFTREQUEST\SHIFTREQUEST\FORMS\TEST.RESX|\\NKM18427\PRV-MDV\VISUAL STUDIO 2010\PROJECTS\SHIFTREQUEST\SHIFTREQUEST\MY PROJECT\RESOURCES.RESX
^\\NKM18427\PRV-MDV\VISUAL STUDIO 2010\PROJECTS\SHIFTREQUEST\SHIFTREQUEST\CONTROLS\USERCONTROLS\ASSIGNSHIFT.RESX|\\NKM18427\PRV-MDV\VISUAL STUDIO 2010\PROJECTS\SHIFTREQUEST\SHIFTREQUEST\CONTROLS\USERCONTROLS\EDITWORKDAYDEFINITIONS.RESX|\\NKM18427\PRV-MDV\VISUAL STUDIO 2010\PROJECTS\SHIFTREQUEST\SHIFTREQUEST\CONTROLS\USERCONTROLS\MANAGESTANDARDSHIFTS.RESX|\\NKM18427\PRV-MDV\VISUAL STUDIO 2010\PROJECTS\SHIFTREQUEST\SHIFTREQUEST\CONTROLS\USERCONTROLS\REVIEWSHIFTREQUESTS.RESX|\\NKM18427\PRV-MDV\VISUAL STUDIO 2010\PROJECTS\SHIFTREQUEST\SHIFTREQUEST\CONTROLS\USERCONTROLS\SHIFTSELECTION.RESX|\\NKM18427\PRV-MDV\VISUAL STUDIO 2010\PROJECTS\SHIFTREQUEST\SHIFTREQUEST\FORMS\EDITSHIFTREQUESTSFORM.RESX|\\NKM18427\PRV-MDV\VISUAL STUDIO 2010\PROJECTS\SHIFTREQUEST\SHIFTREQUEST\FORMS\MANAGESHIFTREQUESTSFORM.RESX|\\NKM18427\PRV-MDV\VISUAL STUDIO 2010\PROJECTS\SHIFTREQUEST\SHIFTREQUEST\FORMS\SELECTCAMPAIGNFORM.RESX|\\NKM18427\PRV-MDV\VISUAL STUDIO 2010\PROJECTS\SHIFTREQUEST\SHIFTREQUEST\FORMS\SETTINGSFORM.RESX|\\NKM18427\PRV-MDV\VISUAL STUDIO 2010\PROJECTS\SHIFTREQUEST\SHIFTREQUEST\FORMS\SUBMITSHIFTREQUESTFORMNEW.RESX|\\NKM18427\PRV-MDV\VISUAL STUDIO 2010\PROJECTS\SHIFTREQUEST\SHIFTREQUEST\FORMS\SUBMITSHIFTREQUESTSFORM.RESX|\\NKM18427\PRV-MDV\VISUAL STUDIO 2010\PROJECTS\SHIFTREQUEST\SHIFTREQUEST\FORMS\TEST.RESX|\\NKM18427\PRV-MDV\VISUAL STUDIO 2010\PROJECTS\SHIFTREQUEST\SHIFTREQUEST\MY PROJECT\RESOURCES.RESX
\\NKM18427\PRV-MDV\VISUAL STUDIO 2010\PROJECTS\SHIFTREQUEST\SHIFTREQUEST\OBJ\X86\DEBUG\SHIFTREQUEST.ASSIGNSHIFT.RESOURCES
\\NKM18427\PRV-MDV\VISUAL STUDIO 2010\PROJECTS\SHIFTREQUEST\SHIFTREQUEST\OBJ\X86\DEBUG\SHIFTREQUEST.EDITWORKDAYDEFINITIONS.RESOURCES
\\NKM18427\PRV-MDV\VISUAL STUDIO 2010\PROJECTS\SHIFTREQUEST\SHIFTREQUEST\OBJ\X86\DEBUG\SHIFTREQUEST.MANAGESTANDARDSHIFTS.RESOURCES
\\NKM18427\PRV-MDV\VISUAL STUDIO 2010\PROJECTS\SHIFTREQUEST\SHIFTREQUEST\OBJ\X86\DEBUG\SHIFTREQUEST.REVIEWSHIFTREQUESTS.RESOURCES
\\NKM18427\PRV-MDV\VISUAL STUDIO 2010\PROJECTS\SHIFTREQUEST\SHIFTREQUEST\OBJ\X86\DEBUG\SHIFTREQUEST.SHIFTSELECTION.RESOURCES
\\NKM18427\PRV-MDV\VISUAL STUDIO 2010\PROJECTS\SHIFTREQUEST\SHIFTREQUEST\OBJ\X86\DEBUG\SHIFTREQUEST.EDITSHIFTREQUESTSFORM.RESOURCES
\\NKM18427\PRV-MDV\VISUAL STUDIO 2010\PROJECTS\SHIFTREQUEST\SHIFTREQUEST\OBJ\X86\DEBUG\SHIFTREQUEST.MANAGESHIFTREQUESTSFORM.RESOURCES
\\NKM18427\PRV-MDV\VISUAL STUDIO 2010\PROJECTS\SHIFTREQUEST\SHIFTREQUEST\OBJ\X86\DEBUG\SHIFTREQUEST.SELECTCAMPAIGNFORM.RESOURCES
\\NKM18427\PRV-MDV\VISUAL STUDIO 2010\PROJECTS\SHIFTREQUEST\SHIFTREQUEST\OBJ\X86\DEBUG\SHIFTREQUEST.SETTINGSFORM.RESOURCES
\\NKM18427\PRV-MDV\VISUAL STUDIO 2010\PROJECTS\SHIFTREQUEST\SHIFTREQUEST\OBJ\X86\DEBUG\SHIFTREQUEST.SUBMITSHIFTREQUESTFORMNEW.RESOURCES
\\NKM18427\PRV-MDV\VISUAL STUDIO 2010\PROJECTS\SHIFTREQUEST\SHIFTREQUEST\OBJ\X86\DEBUG\SHIFTREQUEST.SUBMITSHIFTREQUESTSFORM.RESOURCES
\\NKM18427\PRV-MDV\VISUAL STUDIO 2010\PROJECTS\SHIFTREQUEST\SHIFTREQUEST\OBJ\X86\DEBUG\SHIFTREQUEST.TEST.RESOURCES
\\NKM18427\PRV-MDV\VISUAL STUDIO 2010\PROJECTS\SHIFTREQUEST\SHIFTREQUEST\OBJ\X86\DEBUG\SHIFTREQUEST.RESOURCES.RESOURCES
^\\NKM18427\PRV-MDV\VISUAL STUDIO 2010\PROJECTS\SHIFTREQUEST\SHIFTREQUEST\CONTROLS\USERCONTROLS\ASSIGNSHIFT.RESX|\\NKM18427\PRV-MDV\VISUAL STUDIO 2010\PROJECTS\SHIFTREQUEST\SHIFTREQUEST\CONTROLS\USERCONTROLS\EDITWORKDAYDEFINITIONS.RESX|\\NKM18427\PRV-MDV\VISUAL STUDIO 2010\PROJECTS\SHIFTREQUEST\SHIFTREQUEST\CONTROLS\USERCONTROLS\MANAGESTANDARDSHIFTS.RESX|\\NKM18427\PRV-MDV\VISUAL STUDIO 2010\PROJECTS\SHIFTREQUEST\SHIFTREQUEST\CONTROLS\USERCONTROLS\MODIFYTEAMSINCAMPAIGN.RESX|\\NKM18427\PRV-MDV\VISUAL STUDIO 2010\PROJECTS\SHIFTREQUEST\SHIFTREQUEST\CONTROLS\USERCONTROLS\REVIEWSHIFTREQUESTS.RESX|\\NKM18427\PRV-MDV\VISUAL STUDIO 2010\PROJECTS\SHIFTREQUEST\SHIFTREQUEST\CONTROLS\USERCONTROLS\SHIFTSELECTION.RESX|\\NKM18427\PRV-MDV\VISUAL STUDIO 2010\PROJECTS\SHIFTREQUEST\SHIFTREQUEST\FORMS\EDITSHIFTREQUESTSFORM.RESX|\\NKM18427\PRV-MDV\VISUAL STUDIO 2010\PROJECTS\SHIFTREQUEST\SHIFTREQUEST\FORMS\MANAGESHIFTREQUESTSFORM.RESX|\\NKM18427\PRV-MDV\VISUAL STUDIO 2010\PROJECTS\SHIFTREQUEST\SHIFTREQUEST\FORMS\SELECTCAMPAIGNFORM.RESX|\\NKM18427\PRV-MDV\VISUAL STUDIO 2010\PROJECTS\SHIFTREQUEST\SHIFTREQUEST\FORMS\SETTINGSFORM.RESX|\\NKM18427\PRV-MDV\VISUAL STUDIO 2010\PROJECTS\SHIFTREQUEST\SHIFTREQUEST\FORMS\SUBMITSHIFTREQUESTFORMNEW.RESX|\\NKM18427\PRV-MDV\VISUAL STUDIO 2010\PROJECTS\SHIFTREQUEST\SHIFTREQUEST\FORMS\SUBMITSHIFTREQUESTSFORM.RESX|\\NKM18427\PRV-MDV\VISUAL STUDIO 2010\PROJECTS\SHIFTREQUEST\SHIFTREQUEST\MY PROJECT\RESOURCES.RESX
\\NKM18427\PRV-MDV\VISUAL STUDIO 2010\PROJECTS\SHIFTREQUEST\SHIFTREQUEST\OBJ\X86\DEBUG\SHIFTREQUEST.ASSIGNSHIFT.RESOURCES
\\NKM18427\PRV-MDV\VISUAL STUDIO 2010\PROJECTS\SHIFTREQUEST\SHIFTREQUEST\OBJ\X86\DEBUG\SHIFTREQUEST.EDITWORKDAYDEFINITIONS.RESOURCES
\\NKM18427\PRV-MDV\VISUAL STUDIO 2010\PROJECTS\SHIFTREQUEST\SHIFTREQUEST\OBJ\X86\DEBUG\SHIFTREQUEST.MANAGESTANDARDSHIFTS.RESOURCES
\\NKM18427\PRV-MDV\VISUAL STUDIO 2010\PROJECTS\SHIFTREQUEST\SHIFTREQUEST\OBJ\X86\DEBUG\SHIFTREQUEST.MODIFYTEAMSINCAMPAIGNFORM.RESOURCES
\\NKM18427\PRV-MDV\VISUAL STUDIO 2010\PROJECTS\SHIFTREQUEST\SHIFTREQUEST\OBJ\X86\DEBUG\SHIFTREQUEST.REVIEWSHIFTREQUESTS.RESOURCES
\\NKM18427\PRV-MDV\VISUAL STUDIO 2010\PROJECTS\SHIFTREQUEST\SHIFTREQUEST\OBJ\X86\DEBUG\SHIFTREQUEST.SHIFTSELECTION.RESOURCES
\\NKM18427\PRV-MDV\VISUAL STUDIO 2010\PROJECTS\SHIFTREQUEST\SHIFTREQUEST\OBJ\X86\DEBUG\SHIFTREQUEST.EDITSHIFTREQUESTSFORM.RESOURCES
\\NKM18427\PRV-MDV\VISUAL STUDIO 2010\PROJECTS\SHIFTREQUEST\SHIFTREQUEST\OBJ\X86\DEBUG\SHIFTREQUEST.MANAGESHIFTREQUESTSFORM.RESOURCES
\\NKM18427\PRV-MDV\VISUAL STUDIO 2010\PROJECTS\SHIFTREQUEST\SHIFTREQUEST\OBJ\X86\DEBUG\SHIFTREQUEST.SELECTCAMPAIGNFORM.RESOURCES
\\NKM18427\PRV-MDV\VISUAL STUDIO 2010\PROJECTS\SHIFTREQUEST\SHIFTREQUEST\OBJ\X86\DEBUG\SHIFTREQUEST.SETTINGSFORM.RESOURCES
\\NKM18427\PRV-MDV\VISUAL STUDIO 2010\PROJECTS\SHIFTREQUEST\SHIFTREQUEST\OBJ\X86\DEBUG\SHIFTREQUEST.SUBMITSHIFTREQUESTFORMNEW.RESOURCES
\\NKM18427\PRV-MDV\VISUAL STUDIO 2010\PROJECTS\SHIFTREQUEST\SHIFTREQUEST\OBJ\X86\DEBUG\SHIFTREQUEST.SUBMITSHIFTREQUESTSFORM.RESOURCES
\\NKM18427\PRV-MDV\VISUAL STUDIO 2010\PROJECTS\SHIFTREQUEST\SHIFTREQUEST\OBJ\X86\DEBUG\SHIFTREQUEST.RESOURCES.RESOURCES
^\\NKM18427\PRV-MDV\VISUAL STUDIO 2010\PROJECTS\SHIFTREQUEST\SHIFTREQUEST\CONTROLS\USERCONTROLS\ASSIGNSHIFT.RESX|\\NKM18427\PRV-MDV\VISUAL STUDIO 2010\PROJECTS\SHIFTREQUEST\SHIFTREQUEST\CONTROLS\USERCONTROLS\EDITWORKDAYDEFINITIONS.RESX|\\NKM18427\PRV-MDV\VISUAL STUDIO 2010\PROJECTS\SHIFTREQUEST\SHIFTREQUEST\CONTROLS\USERCONTROLS\MANAGESTANDARDSHIFTS.RESX|\\NKM18427\PRV-MDV\VISUAL STUDIO 2010\PROJECTS\SHIFTREQUEST\SHIFTREQUEST\CONTROLS\USERCONTROLS\MODIFYTEAMSINCAMPAIGN.RESX|\\NKM18427\PRV-MDV\VISUAL STUDIO 2010\PROJECTS\SHIFTREQUEST\SHIFTREQUEST\CONTROLS\USERCONTROLS\REVIEWSHIFTREQUESTS.RESX|\\NKM18427\PRV-MDV\VISUAL STUDIO 2010\PROJECTS\SHIFTREQUEST\SHIFTREQUEST\CONTROLS\USERCONTROLS\SHIFTSELECTION.RESX|\\NKM18427\PRV-MDV\VISUAL STUDIO 2010\PROJECTS\SHIFTREQUEST\SHIFTREQUEST\FORMS\EDITSHIFTREQUESTSFORM.RESX|\\NKM18427\PRV-MDV\VISUAL STUDIO 2010\PROJECTS\SHIFTREQUEST\SHIFTREQUEST\FORMS\EDITSHIFTREQUESTSFROMNEW.RESX|\\NKM18427\PRV-MDV\VISUAL STUDIO 2010\PROJECTS\SHIFTREQUEST\SHIFTREQUEST\FORMS\MANAGESHIFTREQUESTSFORM.RESX|\\NKM18427\PRV-MDV\VISUAL STUDIO 2010\PROJECTS\SHIFTREQUEST\SHIFTREQUEST\FORMS\SELECTCAMPAIGNFORM.RESX|\\NKM18427\PRV-MDV\VISUAL STUDIO 2010\PROJECTS\SHIFTREQUEST\SHIFTREQUEST\FORMS\SETTINGSFORM.RESX|\\NKM18427\PRV-MDV\VISUAL STUDIO 2010\PROJECTS\SHIFTREQUEST\SHIFTREQUEST\FORMS\SUBMITSHIFTREQUESTFORM.RESX|\\NKM18427\PRV-MDV\VISUAL STUDIO 2010\PROJECTS\SHIFTREQUEST\SHIFTREQUEST\MY PROJECT\RESOURCES.RESX
\\NKM18427\PRV-MDV\VISUAL STUDIO 2010\PROJECTS\SHIFTREQUEST\SHIFTREQUEST\OBJ\X86\DEBUG\SHIFTREQUEST.ASSIGNSHIFT.RESOURCES
\\NKM18427\PRV-MDV\VISUAL STUDIO 2010\PROJECTS\SHIFTREQUEST\SHIFTREQUEST\OBJ\X86\DEBUG\SHIFTREQUEST.EDITWORKDAYDEFINITIONS.RESOURCES
\\NKM18427\PRV-MDV\VISUAL STUDIO 2010\PROJECTS\SHIFTREQUEST\SHIFTREQUEST\OBJ\X86\DEBUG\SHIFTREQUEST.MANAGESTANDARDSHIFTS.RESOURCES
\\NKM18427\PRV-MDV\VISUAL STUDIO 2010\PROJECTS\SHIFTREQUEST\SHIFTREQUEST\OBJ\X86\DEBUG\SHIFTREQUEST.MODIFYTEAMSINCAMPAIGNFORM.RESOURCES
\\NKM18427\PRV-MDV\VISUAL STUDIO 2010\PROJECTS\SHIFTREQUEST\SHIFTREQUEST\OBJ\X86\DEBUG\SHIFTREQUEST.REVIEWSHIFTREQUESTS.RESOURCES
\\NKM18427\PRV-MDV\VISUAL STUDIO 2010\PROJECTS\SHIFTREQUEST\SHIFTREQUEST\OBJ\X86\DEBUG\SHIFTREQUEST.SHIFTSELECTION.RESOURCES
\\NKM18427\PRV-MDV\VISUAL STUDIO 2010\PROJECTS\SHIFTREQUEST\SHIFTREQUEST\OBJ\X86\DEBUG\SHIFTREQUEST.EDITSHIFTREQUESTSFORM.RESOURCES
\\NKM18427\PRV-MDV\VISUAL STUDIO 2010\PROJECTS\SHIFTREQUEST\SHIFTREQUEST\OBJ\X86\DEBUG\SHIFTREQUEST.EDITSHIFTREQUESTSFROMNEW.RESOURCES
\\NKM18427\PRV-MDV\VISUAL STUDIO 2010\PROJECTS\SHIFTREQUEST\SHIFTREQUEST\OBJ\X86\DEBUG\SHIFTREQUEST.MANAGESHIFTREQUESTSFORM.RESOURCES
\\NKM18427\PRV-MDV\VISUAL STUDIO 2010\PROJECTS\SHIFTREQUEST\SHIFTREQUEST\OBJ\X86\DEBUG\SHIFTREQUEST.SELECTCAMPAIGNFORM.RESOURCES
\\NKM18427\PRV-MDV\VISUAL STUDIO 2010\PROJECTS\SHIFTREQUEST\SHIFTREQUEST\OBJ\X86\DEBUG\SHIFTREQUEST.SETTINGSFORM.RESOURCES
\\NKM18427\PRV-MDV\VISUAL STUDIO 2010\PROJECTS\SHIFTREQUEST\SHIFTREQUEST\OBJ\X86\DEBUG\SHIFTREQUEST.SUBMITSHIFTREQUESTFORM.RESOURCES
\\NKM18427\PRV-MDV\VISUAL STUDIO 2010\PROJECTS\SHIFTREQUEST\SHIFTREQUEST\OBJ\X86\DEBUG\SHIFTREQUEST.RESOURCES.RESOURCES
^\\NKM18427\PRV-MDV\VISUAL STUDIO 2010\PROJECTS\SHIFTREQUEST\SHIFTREQUEST\CONTROLS\USERCONTROLS\ASSIGNSHIFT.RESX|\\NKM18427\PRV-MDV\VISUAL STUDIO 2010\PROJECTS\SHIFTREQUEST\SHIFTREQUEST\CONTROLS\USERCONTROLS\EDITWORKDAYDEFINITIONS.RESX|\\NKM18427\PRV-MDV\VISUAL STUDIO 2010\PROJECTS\SHIFTREQUEST\SHIFTREQUEST\CONTROLS\USERCONTROLS\MANAGESTANDARDSHIFTS.RESX|\\NKM18427\PRV-MDV\VISUAL STUDIO 2010\PROJECTS\SHIFTREQUEST\SHIFTREQUEST\CONTROLS\USERCONTROLS\MODIFYTEAMSINCAMPAIGN.RESX|\\NKM18427\PRV-MDV\VISUAL STUDIO 2010\PROJECTS\SHIFTREQUEST\SHIFTREQUEST\CONTROLS\USERCONTROLS\REVIEWSHIFTREQUESTS.RESX|\\NKM18427\PRV-MDV\VISUAL STUDIO 2010\PROJECTS\SHIFTREQUEST\SHIFTREQUEST\CONTROLS\USERCONTROLS\SHIFTSELECTION.RESX|\\NKM18427\PRV-MDV\VISUAL STUDIO 2010\PROJECTS\SHIFTREQUEST\SHIFTREQUEST\FORMS\EDITSHIFTREQUESTSFROMNEW.RESX|\\NKM18427\PRV-MDV\VISUAL STUDIO 2010\PROJECTS\SHIFTREQUEST\SHIFTREQUEST\FORMS\MANAGESHIFTREQUESTSFORM.RESX|\\NKM18427\PRV-MDV\VISUAL STUDIO 2010\PROJECTS\SHIFTREQUEST\SHIFTREQUEST\FORMS\SELECTCAMPAIGNFORM.RESX|\\NKM18427\PRV-MDV\VISUAL STUDIO 2010\PROJECTS\SHIFTREQUEST\SHIFTREQUEST\FORMS\SETTINGSFORM.RESX|\\NKM18427\PRV-MDV\VISUAL STUDIO 2010\PROJECTS\SHIFTREQUEST\SHIFTREQUEST\FORMS\SUBMITSHIFTREQUESTFORM.RESX|\\NKM18427\PRV-MDV\VISUAL STUDIO 2010\PROJECTS\SHIFTREQUEST\SHIFTREQUEST\MY PROJECT\RESOURCES.RESX
\\NKM18427\PRV-MDV\VISUAL STUDIO 2010\PROJECTS\SHIFTREQUEST\SHIFTREQUEST\OBJ\X86\DEBUG\SHIFTREQUEST.ASSIGNSHIFT.RESOURCES
\\NKM18427\PRV-MDV\VISUAL STUDIO 2010\PROJECTS\SHIFTREQUEST\SHIFTREQUEST\OBJ\X86\DEBUG\SHIFTREQUEST.EDITWORKDAYDEFINITIONS.RESOURCES
\\NKM18427\PRV-MDV\VISUAL STUDIO 2010\PROJECTS\SHIFTREQUEST\SHIFTREQUEST\OBJ\X86\DEBUG\SHIFTREQUEST.MANAGESTANDARDSHIFTS.RESOURCES
\\NKM18427\PRV-MDV\VISUAL STUDIO 2010\PROJECTS\SHIFTREQUEST\SHIFTREQUEST\OBJ\X86\DEBUG\SHIFTREQUEST.MODIFYTEAMSINCAMPAIGNFORM.RESOURCES
\\NKM18427\PRV-MDV\VISUAL STUDIO 2010\PROJECTS\SHIFTREQUEST\SHIFTREQUEST\OBJ\X86\DEBUG\SHIFTREQUEST.REVIEWSHIFTREQUESTS.RESOURCES
\\NKM18427\PRV-MDV\VISUAL STUDIO 2010\PROJECTS\SHIFTREQUEST\SHIFTREQUEST\OBJ\X86\DEBUG\SHIFTREQUEST.SHIFTSELECTION.RESOURCES
\\NKM18427\PRV-MDV\VISUAL STUDIO 2010\PROJECTS\SHIFTREQUEST\SHIFTREQUEST\OBJ\X86\DEBUG\SHIFTREQUEST.EDITSHIFTREQUESTSFROMNEW.RESOURCES
\\NKM18427\PRV-MDV\VISUAL STUDIO 2010\PROJECTS\SHIFTREQUEST\SHIFTREQUEST\OBJ\X86\DEBUG\SHIFTREQUEST.MANAGESHIFTREQUESTSFORM.RESOURCES
\\NKM18427\PRV-MDV\VISUAL STUDIO 2010\PROJECTS\SHIFTREQUEST\SHIFTREQUEST\OBJ\X86\DEBUG\SHIFTREQUEST.SELECTCAMPAIGNFORM.RESOURCES
\\NKM18427\PRV-MDV\VISUAL STUDIO 2010\PROJECTS\SHIFTREQUEST\SHIFTREQUEST\OBJ\X86\DEBUG\SHIFTREQUEST.SETTINGSFORM.RESOURCES
\\NKM18427\PRV-MDV\VISUAL STUDIO 2010\PROJECTS\SHIFTREQUEST\SHIFTREQUEST\OBJ\X86\DEBUG\SHIFTREQUEST.SUBMITSHIFTREQUESTFORM.RESOURCES
\\NKM18427\PRV-MDV\VISUAL STUDIO 2010\PROJECTS\SHIFTREQUEST\SHIFTREQUEST\OBJ\X86\DEBUG\SHIFTREQUEST.RESOURCES.RESOURCES
^\\NKM18427\PRV-MDV\VISUAL STUDIO 2010\PROJECTS\SHIFTREQUEST\SHIFTREQUEST\CONTROLS\USERCONTROLS\ASSIGNSHIFT.RESX|\\NKM18427\PRV-MDV\VISUAL STUDIO 2010\PROJECTS\SHIFTREQUEST\SHIFTREQUEST\CONTROLS\USERCONTROLS\EDITWORKDAYDEFINITIONS.RESX|\\NKM18427\PRV-MDV\VISUAL STUDIO 2010\PROJECTS\SHIFTREQUEST\SHIFTREQUEST\CONTROLS\USERCONTROLS\MANAGESTANDARDSHIFTS.RESX|\\NKM18427\PRV-MDV\VISUAL STUDIO 2010\PROJECTS\SHIFTREQUEST\SHIFTREQUEST\CONTROLS\USERCONTROLS\MODIFYTEAMSINCAMPAIGN.RESX|\\NKM18427\PRV-MDV\VISUAL STUDIO 2010\PROJECTS\SHIFTREQUEST\SHIFTREQUEST\CONTROLS\USERCONTROLS\REVIEWSHIFTREQUESTS.RESX|\\NKM18427\PRV-MDV\VISUAL STUDIO 2010\PROJECTS\SHIFTREQUEST\SHIFTREQUEST\CONTROLS\USERCONTROLS\SHIFTSELECTION.RESX|\\NKM18427\PRV-MDV\VISUAL STUDIO 2010\PROJECTS\SHIFTREQUEST\SHIFTREQUEST\FORMS\EDITSHIFTREQUESTSFROM.RESX|\\NKM18427\PRV-MDV\VISUAL STUDIO 2010\PROJECTS\SHIFTREQUEST\SHIFTREQUEST\FORMS\MANAGESHIFTREQUESTSFORM.RESX|\\NKM18427\PRV-MDV\VISUAL STUDIO 2010\PROJECTS\SHIFTREQUEST\SHIFTREQUEST\FORMS\SELECTCAMPAIGNFORM.RESX|\\NKM18427\PRV-MDV\VISUAL STUDIO 2010\PROJECTS\SHIFTREQUEST\SHIFTREQUEST\FORMS\SETTINGSFORM.RESX|\\NKM18427\PRV-MDV\VISUAL STUDIO 2010\PROJECTS\SHIFTREQUEST\SHIFTREQUEST\FORMS\SUBMITSHIFTREQUESTFORM.RESX|\\NKM18427\PRV-MDV\VISUAL STUDIO 2010\PROJECTS\SHIFTREQUEST\SHIFTREQUEST\MY PROJECT\RESOURCES.RESX
\\NKM18427\PRV-MDV\VISUAL STUDIO 2010\PROJECTS\SHIFTREQUEST\SHIFTREQUEST\OBJ\X86\DEBUG\SHIFTREQUEST.ASSIGNSHIFT.RESOURCES
\\NKM18427\PRV-MDV\VISUAL STUDIO 2010\PROJECTS\SHIFTREQUEST\SHIFTREQUEST\OBJ\X86\DEBUG\SHIFTREQUEST.EDITWORKDAYDEFINITIONS.RESOURCES
\\NKM18427\PRV-MDV\VISUAL STUDIO 2010\PROJECTS\SHIFTREQUEST\SHIFTREQUEST\OBJ\X86\DEBUG\SHIFTREQUEST.MANAGESTANDARDSHIFTS.RESOURCES
\\NKM18427\PRV-MDV\VISUAL STUDIO 2010\PROJECTS\SHIFTREQUEST\SHIFTREQUEST\OBJ\X86\DEBUG\SHIFTREQUEST.MODIFYTEAMSINCAMPAIGNFORM.RESOURCES
\\NKM18427\PRV-MDV\VISUAL STUDIO 2010\PROJECTS\SHIFTREQUEST\SHIFTREQUEST\OBJ\X86\DEBUG\SHIFTREQUEST.REVIEWSHIFTREQUESTS.RESOURCES
\\NKM18427\PRV-MDV\VISUAL STUDIO 2010\PROJECTS\SHIFTREQUEST\SHIFTREQUEST\OBJ\X86\DEBUG\SHIFTREQUEST.SHIFTSELECTION.RESOURCES
\\NKM18427\PRV-MDV\VISUAL STUDIO 2010\PROJECTS\SHIFTREQUEST\SHIFTREQUEST\OBJ\X86\DEBUG\SHIFTREQUEST.EDITSHIFTREQUESTSFROM.RESOURCES
\\NKM18427\PRV-MDV\VISUAL STUDIO 2010\PROJECTS\SHIFTREQUEST\SHIFTREQUEST\OBJ\X86\DEBUG\SHIFTREQUEST.MANAGESHIFTREQUESTSFORM.RESOURCES
\\NKM18427\PRV-MDV\VISUAL STUDIO 2010\PROJECTS\SHIFTREQUEST\SHIFTREQUEST\OBJ\X86\DEBUG\SHIFTREQUEST.SELECTCAMPAIGNFORM.RESOURCES
\\NKM18427\PRV-MDV\VISUAL STUDIO 2010\PROJECTS\SHIFTREQUEST\SHIFTREQUEST\OBJ\X86\DEBUG\SHIFTREQUEST.SETTINGSFORM.RESOURCES
\\NKM18427\PRV-MDV\VISUAL STUDIO 2010\PROJECTS\SHIFTREQUEST\SHIFTREQUEST\OBJ\X86\DEBUG\SHIFTREQUEST.SUBMITSHIFTREQUESTFORM.RESOURCES
\\NKM18427\PRV-MDV\VISUAL STUDIO 2010\PROJECTS\SHIFTREQUEST\SHIFTREQUEST\OBJ\X86\DEBUG\SHIFTREQUEST.RESOURCES.RESOURCES
